…
colnames(heart_tcrs)[colnames(heart_tcrs) == "amino_acid"] <- "clone_id"
# Only look at subjects with at least 200 TCRs
div_df <- heart_tcrs[,c("clone_id", "id", "count_templates_reads")]
# div_df <- div_df[div_df$id != "SIC_232",]

div <- alphaDiversity(div_df, group = "id", nboot = 100, min_n = 100, copy = "count_templates_reads")

## [1] "MADE IT!"
## # A tibble: 328 × 9
## # Groups:   id [8]
##    id          q     d  d_sd d_lower d_upper     e e_lower e_upper
##    <chr>   <dbl> <dbl> <dbl>   <dbl>   <dbl> <dbl>   <dbl>   <dbl>
##  1 SIC_136   0    519.  11.6    496.    541. 1       0.956   1.04 
##  2 SIC_136   0.1  507.  12.0    484.    530. 0.977   0.932   1.02 
##  3 SIC_136   0.2  494.  12.4    470.    519. 0.953   0.906   1.00 
##  4 SIC_136   0.3  481.  12.8    456.    506. 0.927   0.879   0.976
##  5 SIC_136   0.4  467.  13.3    441.    493. 0.900   0.850   0.950
##  6 SIC_136   0.5  452.  13.8    425.    479. 0.871   0.819   0.923
##  7 SIC_136   0.6  436.  14.3    408.    464. 0.841   0.787   0.895
##  8 SIC_136   0.7  420.  14.8    391.    449. 0.809   0.753   0.865
##  9 SIC_136   0.8  402.  15.4    372.    432. 0.775   0.717   0.834
## 10 SIC_136   0.9  384.  15.9    353.    416. 0.741   0.681   0.801
## # … with 318 more rows
…
