…
``` r
# Only take cells with full TCR info
cd8_info <- blood_sc_info[blood_sc_info$TRA_cdr3 != "" & blood_sc_info$TRB_cdr3 != "" &
                             blood_sc_info$TRA_v_gene != "" & blood_sc_info$TRB_v_gene != "",]

# Change the column name to be compatible
colnames(cd8_info)[colnames(cd8_info) == "clone"] <- "clone_id"

div_df <- cd8_info[,c("clone_id", "sample_id")]

div <- alphaDiversity(div_df, group = "sample_id", nboot = 100, min_n = 100)
```

    ## [1] "MADE IT!"
    ## # A tibble: 1,558 × 9
    ## # Groups:   sample_id [38]
    ##    sample_id       q     d  d_sd d_lower d_upper     e e_lower e_upper
    ##    <chr>       <dbl> <dbl> <dbl>   <dbl>   <dbl> <dbl>   <dbl>   <dbl>
    ##  1 SIC_109_368   0   25.1   3.18   18.9     31.4 1       0.752   1.25 
    ##  2 SIC_109_368   0.1 23.0   3.02   17.1     28.9 0.916   0.680   1.15 
    ##  3 SIC_109_368   0.2 20.9   2.84   15.4     26.5 0.833   0.612   1.05 
    ##  4 SIC_109_368   0.3 18.9   2.65   13.7     24.1 0.752   0.546   0.959
    ##  5 SIC_109_368   0.4 17.0   2.44   12.2     21.8 0.675   0.485   0.866
    ##  6 SIC_109_368   0.5 15.2   2.23   10.8     19.5 0.603   0.429   0.777
    ##  7 SIC_109_368   0.6 13.5   2.02    9.52    17.4 0.536   0.378   0.694
    ##  8 SIC_109_368   0.7 12.0   1.82    8.39    15.5 0.476   0.334   0.618
    ##  9 SIC_109_368   0.8 10.6   1.63    7.42    13.8 0.423   0.295   0.550
    ## 10 SIC_109_368   0.9  9.45  1.47    6.58    12.3 0.376   0.262   0.490
    ## # … with 1,548 more rows
…
