…
colnames(heart_tcrs)[colnames(heart_tcrs) == "amino_acid"] <- "clone_id"
# Only look at subjects with at least 200 TCRs
div_df <- heart_tcrs[,c("clone_id", "id", "count_templates_reads")]
div_df <- div_df[div_df$id != "SIC_232",] # They have tumors in their heart...different case
div <- alphaDiversity(div_df, group = "id", nboot = 100, min_n = 100, copy = "count_templates_reads")
```

    ## [1] "MADE IT!"
    ## # A tibble: 369 × 9
    ## # Groups:   id [9]
    ##    id          q     d  d_sd d_lower d_upper     e e_lower e_upper
    ##    <chr>   <dbl> <dbl> <dbl>   <dbl>   <dbl> <dbl>   <dbl>   <dbl>
    ##  1 SIC_136   0    156.  5.61    145.    167. 1       0.929    1.07
    ##  2 SIC_136   0.1  154.  5.84    143.    166. 0.991   0.917    1.06
    ##  3 SIC_136   0.2  153.  6.09    141.    165. 0.981   0.905    1.06
    ##  4 SIC_136   0.3  151.  6.36    139.    164. 0.971   0.891    1.05
    ##  5 SIC_136   0.4  150.  6.64    137.    163. 0.961   0.877    1.04
    ##  6 SIC_136   0.5  148.  6.94    134.    162. 0.949   0.862    1.04
    ##  7 SIC_136   0.6  146.  7.26    132.    160. 0.937   0.846    1.03
    ##  8 SIC_136   0.7  144.  7.60    129.    159. 0.925   0.829    1.02
    ##  9 SIC_136   0.8  142.  7.96    127.    158. 0.912   0.812    1.01
    ## 10 SIC_136   0.9  140.  8.33    124.    156. 0.898   0.793    1.00
    ## # … with 359 more rows
…
